module gitlab.com/extension_go

go 1.20

require go.mongodb.org/mongo-driver v1.12.0

require (
	github.com/golang/snappy v0.0.1 // indirect
	github.com/google/go-cmp v0.5.9 // indirect
	github.com/klauspost/compress v1.13.6 // indirect
	github.com/montanaflynn/stats v0.0.0-20171201202039-1bf9dbcd8cbe // indirect
	github.com/xdg-go/pbkdf2 v1.0.0 // indirect
	github.com/xdg-go/scram v1.1.2 // indirect
	github.com/xdg-go/stringprep v1.0.4 // indirect
	github.com/youmark/pkcs8 v0.0.0-20181117223130-1be2e3e5546d // indirect
	golang.org/x/crypto v0.11.0 // indirect
	golang.org/x/sync v0.3.0 // indirect
	golang.org/x/text v0.11.0 // indirect
)
